{
	"ulid": "01FXG0V1G5504A4YKT9GJNV5AZ",
	"minTime": 1646573173157,
	"maxTime": 1646575200000,
	"stats": {
		"numSamples": 188475,
		"numSeries": 2695,
		"numChunks": 2695
	},
	"compaction": {
		"level": 1,
		"sources": [
			"01FXG0V1G5504A4YKT9GJNV5AZ"
		]
	},
	"version": 1
}